{
  "project_info": {
    "project_number": "56213277309",
    "project_id": "bakamla-flutter-app",
    "storage_bucket": "bakamla-flutter-app.appspot.com"
  },
  "client": [
    {
      "client_info": {
        "mobilesdk_app_id": "1:56213277309:android:dc434d813338eb9fdb7f14",
        "android_client_info": {
          "package_name": "com.example.bakamlachat"
        }
      },
      "oauth_client": [],
      "api_key": [
        {
          "current_key": "AIzaSyBYdQURsEJpYylYXY1Y_2NPOxDsWzfmzxY"
        }
      ],
      "services": {
        "appinvite_service": {
          "other_platform_oauth_client": []
        }
      }
    }
  ],
  "configuration_version": "1"
}